{
  "id": "0a6bb915-9c9b-4b4c-8ccf-378b26468743",
  "name": "Default Welcome Intent",
  "auto": true,
  "contexts": [],
  "responses": [
    {
      "resetContexts": false,
      "action": "input.welcome",
      "affectedContexts": [],
      "parameters": [],
      "messages": [
        {
          "type": 0,
          "speech": "I am the Heritage Helper. Your assistant to all things Heritage. Try asking me a Question. Like: \"Where can I find the Principal's Office?\""
        }
      ],
      "defaultResponsePlatforms": {
        "google": true
      },
      "speech": []
    }
  ],
  "priority": 500000,
  "webhookUsed": false,
  "webhookForSlotFilling": false,
  "lastUpdate": 1532524025,
  "fallbackIntent": false,
  "events": [
    {
      "name": "WELCOME"
    }
  ],
  "userSays": [
    {
      "id": "42a41c98-6153-4c90-ab2c-eafca79c3fd7",
      "data": [
        {
          "text": "just going to say hi"
        }
      ],
      "isTemplate": false,
      "count": 0,
      "updated": 1532147998,
      "isAuto": false
    },
    {
      "id": "49997256-1b4b-4a56-8883-6e31613804ee",
      "data": [
        {
          "text": "heya"
        }
      ],
      "isTemplate": false,
      "count": 0,
      "updated": 1532147998,
      "isAuto": false
    },
    {
      "id": "e8633035-b460-4e95-a858-0d36c8a5bd40",
      "data": [
        {
          "text": "hello hi"
        }
      ],
      "isTemplate": false,
      "count": 0,
      "updated": 1532147998,
      "isAuto": false
    },
    {
      "id": "954906e0-6791-4e34-97d2-9b90d6016f9f",
      "data": [
        {
          "text": "howdy"
        }
      ],
      "isTemplate": false,
      "count": 0,
      "updated": 1532147998,
      "isAuto": false
    },
    {
      "id": "400e21af-b5e3-4ca1-9523-262f69d909da",
      "data": [
        {
          "text": "hey there"
        }
      ],
      "isTemplate": false,
      "count": 0,
      "updated": 1532147998,
      "isAuto": false
    },
    {
      "id": "12866ce2-fb1e-4779-a25f-d39a8970a4fe",
      "data": [
        {
          "text": "hi there"
        }
      ],
      "isTemplate": false,
      "count": 1,
      "updated": 1532147998,
      "isAuto": false
    },
    {
      "id": "e6130422-a411-4516-b052-bba66109cc74",
      "data": [
        {
          "text": "greetings"
        }
      ],
      "isTemplate": false,
      "count": 0,
      "updated": 1532147998,
      "isAuto": false
    },
    {
      "id": "b94ab3bf-6622-4236-8467-468bfaf1813c",
      "data": [
        {
          "text": "hey"
        }
      ],
      "isTemplate": false,
      "count": 0,
      "updated": 1532147998,
      "isAuto": false
    },
    {
      "id": "4fde0cbd-ae30-4365-b127-a33ea0b086c7",
      "data": [
        {
          "text": "long time no see"
        }
      ],
      "isTemplate": false,
      "count": 0,
      "updated": 1532147998,
      "isAuto": false
    },
    {
      "id": "93ae96c5-069a-4267-bf0b-9f74ba689707",
      "data": [
        {
          "text": "hello"
        }
      ],
      "isTemplate": false,
      "count": 0,
      "updated": 1532147998,
      "isAuto": false
    },
    {
      "id": "4054de54-bc15-443e-9a8e-b11856794ab0",
      "data": [
        {
          "text": "lovely day isn't it"
        }
      ],
      "isTemplate": false,
      "count": 0,
      "updated": 1532147998,
      "isAuto": false
    },
    {
      "id": "2488f259-df4c-4e26-b22e-adf0b97e0ba1",
      "data": [
        {
          "text": "I greet you"
        }
      ],
      "isTemplate": false,
      "count": 0,
      "updated": 1532147998,
      "isAuto": false
    },
    {
      "id": "30273b63-bf6f-4374-92b8-93954f88f769",
      "data": [
        {
          "text": "hello again"
        }
      ],
      "isTemplate": false,
      "count": 0,
      "updated": 1532147998,
      "isAuto": false
    },
    {
      "id": "292a1a83-c215-4271-a144-6a723d7506a1",
      "data": [
        {
          "text": "hi"
        }
      ],
      "isTemplate": false,
      "count": 0,
      "updated": 1532147998,
      "isAuto": false
    },
    {
      "id": "cd968095-0e4b-4b90-b836-49ea5b736f8a",
      "data": [
        {
          "text": "hello there"
        }
      ],
      "isTemplate": false,
      "count": 0,
      "updated": 1532147998,
      "isAuto": false
    },
    {
      "id": "e259e024-8585-4681-b04b-b63d89431d5e",
      "data": [
        {
          "text": "a good day"
        }
      ],
      "isTemplate": false,
      "count": 0,
      "updated": 1532147998,
      "isAuto": false
    }
  ],
  "followUpIntents": [],
  "liveAgentHandoff": false,
  "endInteraction": false,
  "templates": []
}